<?xml version="1.0" encoding="iso-8859-1"?>
<!-- Generator: Adobe Illustrator 19.1.0, SVG Export Plug-In . SVG Version: 6.00 Build 0)  -->
<svg version="1.1" id="Capa_1" xmlns="http://www.w3.org/2000/svg" xmlns:xlink="http://www.w3.org/1999/xlink" x="0px" y="0px"
	 viewBox="0 0 324.549 324.549" fill="#ffffff" style="enable-background:new 0 0 324.549 324.549;" xml:space="preserve">
<g>
	<g>
		<path d="M135.992,298.159c-6.009,0-11.652-2.339-15.906-6.587L6.632,178.125c-1.054-1.054-2.018-2.23-2.854-3.47
			c-0.315-0.469-0.572-0.945-0.816-1.44c-0.636-1.138-0.977-1.78-1.26-2.468c-0.231-0.553-0.424-1.189-0.604-1.825L0.9,168.253
			c-0.174-0.533-0.341-1.073-0.456-1.632C0.148,165.091,0,163.638,0,162.173c0-1.472,0.148-2.937,0.431-4.377
			c0.135-0.643,0.289-1.15,0.45-1.652l0.199-0.668c0.18-0.649,0.379-1.285,0.636-1.915s0.585-1.234,0.932-1.838
			c0.553-1.06,0.816-1.555,1.138-2.031c0.842-1.253,1.78-2.41,2.809-3.432L120.098,32.762c8.496-8.496,23.31-8.496,31.806,0
			c4.248,4.248,6.587,9.897,6.587,15.906s-2.339,11.658-6.587,15.906l-75.11,75.098h225.261c12.404,0,22.494,10.09,22.494,22.494
			s-10.09,22.494-22.494,22.494H76.794l75.104,75.104c4.248,4.248,6.587,9.897,6.587,15.906s-2.339,11.652-6.587,15.906
			C147.65,295.832,142.001,298.159,135.992,298.159z M135.992,39.029c-2.571,0-4.994,1.003-6.819,2.821L15.675,155.348
			c-0.45,0.45-0.848,0.945-1.208,1.478l-1.375,3.329c-0.167,0.72-0.244,1.362-0.244,2.012s0.077,1.285,0.193,1.922l1.414,3.361
			c0.373,0.598,0.791,1.105,1.26,1.568l113.459,113.459c3.638,3.638,9.994,3.638,13.631,0c1.819-1.819,2.821-4.242,2.821-6.819
			c0-2.577-1.003-4.994-2.821-6.819l-97.045-97.045h256.289c5.309,0,9.64-4.325,9.64-9.64s-4.332-9.64-9.64-9.64H45.765
			l97.045-97.039c1.819-1.825,2.821-4.242,2.821-6.819c0-2.571-1.003-4.994-2.821-6.812
			C140.992,40.038,138.569,39.029,135.992,39.029z"/>
	</g>
</g>
<g>
</g>
<g>
</g>
<g>
</g>
<g>
</g>
<g>
</g>
<g>
</g>
<g>
</g>
<g>
</g>
<g>
</g>
<g>
</g>
<g>
</g>
<g>
</g>
<g>
</g>
<g>
</g>
<g>
</g>
</svg>
